{
  "name": "__PKG_NAME__",
  "title": "Sandbox Explorer",
  "description": "__PKG_DESC__",
  "author": "__PKG_AUTHOR__",
  "version": "__PKG_VERSION__",
  "minimumCoreVersion": "0.8.8",
  "compatibleCoreVersion": "0.8.8",
  "dependencies": [
    {
      "name": "sandbox",
      "type": "system"
    }
  ],
  "esmodules": ["main.js"],
  "styles": ["styles/sandbox-explorer.css"],
  "languages": [
    {
      "lang": "en",
      "name": "English",
      "path": "lang/en.json"
    }
  ],
  "flags": {
    "allowBugReporter": true
  },
  "bugs": "__PKG_HOMEPAGE__/-/issues",
  "url": "__PKG_HOMEPAGE__",
  "manifest": "https://gitlab.com/api/v4/projects/27683785/packages/generic/__PKG_NAME__/latest/module.json",
  "changelog": "__PKG_HOMEPAGE__/-/blob/v__PKG_VERSION__/CHANGELOG.md",
  "download": "__PKG_HOMEPAGE__/-/releases/v__PKG_VERSION__/downloads/__PKG_NAME__.zip"
}
